
{
  "wrongLoginOrPassword":"Սխալ ծածկանուն կամ գաղտնաբառ",
  "sessionExpired":"Սեսսիան ավարտված է",
  "successfullyAdded":" Հաջողությամբ ավելացվեց",
  "successfullyEdited":"Հաջողությամբ խմբագրվեց",
  "successfullyDeleted":"Հաջողությամբ ջնջվեց",
  "alreadyRegistered":"Արդեն գրանցված է",
  "wrongConfirmationCode":"Հաստատման ծածկագիրը սխալ է",
  "existingAdministrator":"Գոյություն ունեցող ադմինիստրատոր",
  "successfullyChanged":"Հաջողությամբ փոփոխվեց",
  "customerNotFound":"Հաճախորդ չի գտնվել",
  "verificationCodeSentToPhone":"Ծածկագիրն ուղարկվել է հեռախոսահամարին",
  "yourAccountIsNotVerifiedPleaseConfirmIt":" Ձեր էջը հաստատված չէ, խնդրում ենք հաստատել",
  "successfullyConfirmed":"Հաջողությամբ հաստատվեց",
  "successfullySent":"Հաջողությամբ ուղարկվեց",
  "yourPasswordSuccessfullyChanged":"Ձեր գաղտնաբառը հաջողությամբ փոփոխվեց",
  "carSuccessfullyAdded":"Ավտոմեքենան հաջողությամբ ավելացվեց",
  "photoSuccessfullyChanged":"Լուսանկարը հաջողությամբ փոփոխվեց",
  "entertainmentPlaceNotFound":"Ոչինչ չի գտնվել",
  "verificationCodeSentToMail":"Ծածկագիրն ուղարկվել է Ձեր էլ․փոստին",
  "thankYouForYourPurchase":"Շնորհակալություն պատվերի համար",
  "insufficientFunds":"Անբավարար միջոցներ",
  "couponActivated":"Կտրոնը ակտիվացված է",
  "wrongCouponNumber":"Կտրոնի համարը սխալ է",
  "incorrectPassword":" Սխալ գաղտնաբառ",
  "yourCompanyChanged":"Ձեր ընկերությունը փոփոխվեց",
  "wrongAgencyCode":"Կազմակերպության ծածկագիրը սխալ է",
  "successfullyFollowed":"Հաջողությամբ հետևեց",
  "yourOrderAccepted":"Ձեր պատվերն ընդունված է",
  "thisTourDoesNotHaveSoManyFreeSeats":"Կներեք, չկա այդքան ազատ նստատեղ",
  "yourOrdersUpdated":"Ձեր պատվերները թարմացված են",
  "couponNotFound":"Կտրոն չի գտնվել",
  "yourOrderRejected":"Ձեր պատվերը չեղարկվեց",
  "agencyNotFound":"Գործակալություն չի գտնվել",
  "driverNotFound":"Վարորդ չի գտնվել",
  "guideNotFound":"Զբոսավար չի գտնվել",
  "notFound":"Չի գտնվել",
  "youHaveNewOrder":"Դուք ունեք նոր պատվեր",
  "youHaveCanceledOrder":"Դուք ունեք մերժված պատվեր",
  "inThisDayTourIsNotPerformed":"Տվյալ օրը տուր չի կատարվում",
  "tourNotFound":"Տուր չի գտնվել",
  "youDontCanceledThisOrder":"Դուք չեք կարող չեղարկել այս տուրը, քանի որ տուրի մեկնարկին մնացել է 24 ժամից պակաս ժամանակ",
  "thisTourNotAvailable":"Տվյալ տուրը հասանելի չէ",
  "thankYouForYourRating":"Շնորհակալություն գնահատականի համար",
  "yourAccountIsSuspended":"Ձեր էջը կասեցված է",
  "successfullyFinished":"Հաջողությամբ ավարտվեց",
  "manyChangesCustomNotification":"Փոփոխություն պատվերներ բաժնում։",
  "incorrectDate":"Սխալ ամսաթիվ",
  "pleaseAddAddress":"Խնդրում ենք մուտքագրել հասցեն",
  "orderOutOffTime":"Հաստատման ժամանակը ավարտված է",
  "wrongCode":"Սխալ կոդ",
  "theOrderWasMadeWithoutYourPresence":"Պատվերը կատարվել է առանց Ձեր ներկայության",
  "orderHasBeenPaid":"Պատվերը վճարվել է",
  "pleaseWaitForTheOrganizerToAcceptYourOrder":"Խնդրում ենք սպասել մինչև կազմակերպիչը ընդունի ձեր պատվերը.",
  "yourOrderHasBeenCanceled":"Ձեր պատվերը չեղարկվեց.",
  "pleaseWaitForTheGuideToAcceptYourOrder":"Խնդրում ենք սպասել մինչև զբոսավարը ընդունի ձեր պատվերը.",
  "youWillReceiveAnAdditionalNoticeAboutTheEndOfTheClientsPaymentIfClientDoesntPayWithin15MinutesThOrderWillBeCancelAutomaticallyThankYou": "Դուք կստանաք լրացուցիչ հաղորդագրություն պատվիրատուի վճարման ավարտի վերաբերյալ: Եթե պատվիրատուն վճարումը չի կատարում 15 րոպեի ընթացքում, պատվերը ինքնաբերաբար չեղարկվում է:\nՇնորհակալություն:",
  "pleaseAddStartDate": "Խնդրում ենք ավելացնել մեկնարկի ժամանակը",
  "successfullyRefunded": "հաջողությամբ վերադարձվել է"

}