{
  "success":"success",
  "reject":"reject",
  "sessionExpired":"sessionExpired",
  "videoNotFound":"videoNotFound",
  "photoNotFound":"photoNotFound",
  "footballClubNotFound":"footballClubNotFound",
  "playerNotFound":"playerNotFound",
  "newsNotFound":"newsNotFound",
  "thisItemIsMain":"thisItemIsMain",
  "voteNotFound":"voteNotFound",
  "notConfirmed":"notConfirmed",
  "customerNotFound":"customerNotFound",
  "tourNotFound":"tourNotFound",
  "tourIsNotPerformed":"tourIsNotPerformed",
  "orderSuccessfullyAdded":"orderSuccessfullyAdded"
}